Lab/Lab04/CASO2.csv

Record Length,2000,Points,-10.0000007E-3,20.0000014E-3,,Record Length,2000,Points,-10.0000007E-3,20.0000014E-3,
Sample Interval,79.999997979E-6,s,-9.920001030E-3,60.000002384E-3,,Sample Interval,79.999997979E-6,s,-9.920001030E-3,20.0000014E-3,
Trigger Point,125.0000120,Samples,-9.840000421E-3,60.000002384E-3,,Trigger Point,125.0000120,Samples,-9.840000421E-3,-20.0000014E-3,
,,,-9.760000743E-3,60.000002384E-3,,,,,-9.760000743E-3,20.0000014E-3,
,,,-9.680001065E-3,60.000002384E-3,,,,,-9.680001065E-3,-20.0000014E-3,
,,,-9.600000456E-3,60.000002384E-3,,,,,-9.600000456E-3,20.0000014E-3,
Source,CH1,,-9.520000778E-3,20.0000014E-3,,Source,CH2,,-9.520000778E-3,20.0000014E-3,
Vertical Units,V,,-9.440001100E-3,20.0000014E-3,,Vertical Units,V,,-9.440001100E-3,-20.0000014E-3,
Vertical Scale,1.0000001,,-9.360000491E-3,60.000002384E-3,,Vertical Scale,1.0000001,,-9.360000491E-3,-20.0000014E-3,
Vertical Offset,0,,-9.280000813E-3,60.000002384E-3,,Vertical Offset,0,,-9.280000813E-3,20.0000014E-3,
Horizontal Units,s,,-9.200001135E-3,60.000002384E-3,,Horizontal Units,s,,-9.200001135E-3,20.0000014E-3,
Horizontal Scale,15.9999996E-3,,-9.120000526E-3,60.000002384E-3,,Horizontal Scale,15.9999996E-3,,-9.120000526E-3,-20.0000014E-3,
Pt Fmt,Y,,-9.040000848E-3,60.000002384E-3,,Pt Fmt,Y,,-9.040000848E-3,20.0000014E-3,
Yzero,-2.90000000,,-8.960001171E-3,60.000002384E-3,,Yzero,-2.90000000,,-8.960001171E-3,20.0000014E-3,
,,,-8.880000561E-3,20.0000014E-3,,,,,-8.880000561E-3,-20.0000014E-3,
,,,-8.800000884E-3,60.000002384E-3,,,,,-8.800000884E-3,20.0000014E-3,
Note,TBS2102B - 5:57:46 PM   8/8/2024,,-8.720001206E-3,60.000002384E-3,,Note,TBS2102B - 5:57:46 PM   8/8/2024,,-8.720001206E-3,-20.0000014E-3,
,,,-8.640000597E-3,60.000002384E-3,,,,,-8.640000597E-3,-20.0000014E-3,
,,,-8.560000919E-3,20.0000014E-3,,,,,-8.560000919E-3,-20.0000014E-3,
,,,-8.480000310E-3,60.000002384E-3,,,,,-8.480000310E-3,-20.0000014E-3,
,,,-8.400000632E-3,60.000002384E-3,,,,,-8.400000632E-3,-20.0000014E-3,
,,,-8.320000954E-3,60.000002384E-3,,,,,-8.320000954E-3,-20.0000014E-3,
,,,-8.240000345E-3,20.0000014E-3,,,,,-8.240000345E-3,-20.0000014E-3,
,,,-8.160000667E-3,20.0000014E-3,,,,,-8.160000667E-3,20.0000014E-3,
,,,-8.080000989E-3,60.000002384E-3,,,,,-8.080000989E-3,-20.0000014E-3,
,,,-8.000000380E-3,60.000002384E-3,,,,,-8.000000380E-3,20.0000014E-3,
,,,-7.920000702E-3,20.0000014E-3,,,,,-7.920000702E-3,-20.0000014E-3,
,,,-7.840001024E-3,60.000002384E-3,,,,,-7.840001024E-3,-20.0000014E-3,
,,,-7.760000881E-3,60.000002384E-3,,,,,-7.760000881E-3,-20.0000014E-3,
,,,-7.680000737E-3,20.0000014E-3,,,,,-7.680000737E-3,20.0000014E-3,
,,,-7.600000594E-3,60.000002384E-3,,,,,-7.600000594E-3,-20.0000014E-3,
,,,-7.520000916E-3,60.000002384E-3,,,,,-7.520000916E-3,-20.0000014E-3,
,,,-7.440000772E-3,60.000002384E-3,,,,,-7.440000772E-3,-20.0000014E-3,
,,,-7.36000063E-3,20.0000014E-3,,,,,-7.36000063E-3,20.0000014E-3,
,,,-7.28000095E-3,60.000002384E-3,,,,,-7.28000095E-3,-20.0000014E-3,
,,,-7.20000081E-3,60.000002384E-3,,,,,-7.20000081E-3,20.0000014E-3,
,,,-7.12000066E-3,20.0000014E-3,,,,,-7.12000066E-3,-20.0000014E-3,
,,,-7.04000099E-3,60.000002384E-3,,,,,-7.04000099E-3,20.0000014E-3,
,,,-6.96000084E-3,20.0000014E-3,,,,,-6.96000084E-3,20.0000014E-3,
,,,-6.88000070E-3,60.000002384E-3,,,,,-6.88000070E-3,20.0000014E-3,
,,,-6.80000056E-3,60.000002384E-3,,,,,-6.80000056E-3,-20.0000014E-3,
,,,-6.72000088E-3,20.0000014E-3,,,,,-6.72000088E-3,20.0000014E-3,
,,,-6.64000073E-3,60.000002384E-3,,,,,-6.64000073E-3,-20.0000014E-3,
,,,-6.56000059E-3,60.000002384E-3,,,,,-6.56000059E-3,-20.0000014E-3,
,,,-6.48000091E-3,20.0000014E-3,,,,,-6.48000091E-3,-20.0000014E-3,
,,,-6.40000077E-3,60.000002384E-3,,,,,-6.40000077E-3,20.0000014E-3,
,,,-6.32000063E-3,60.000002384E-3,,,,,-6.32000063E-3,20.0000014E-3,
,,,-6.24000095E-3,20.0000014E-3,,,,,-6.24000095E-3,-20.0000014E-3,
,,,-6.16000080E-3,60.000002384E-3,,,,,-6.16000080E-3,20.0000014E-3,
,,,-6.08000066E-3,60.000002384E-3,,,,,-6.08000066E-3,20.0000014E-3,
,,,-6.00000098E-3,20.0000014E-3,,,,,-6.00000098E-3,20.0000014E-3,
,,,-5.92000084E-3,20.0000014E-3,,,,,-5.92000084E-3,-20.0000014E-3,
,,,-5.84000070E-3,60.000002384E-3,,,,,-5.84000070E-3,20.0000014E-3,
,,,-5.76000102E-3,60.000002384E-3,,,,,-5.76000102E-3,20.0000014E-3,
,,,-5.68000088E-3,20.0000014E-3,,,,,-5.68000088E-3,20.0000014E-3,
,,,-5.60000073E-3,60.000002384E-3,,,,,-5.60000073E-3,20.0000014E-3,
,,,-5.52000105E-3,60.000002384E-3,,,,,-5.52000105E-3,20.0000014E-3,
,,,-5.44000091E-3,20.0000014E-3,,,,,-5.44000091E-3,-20.0000014E-3,
,,,-5.36000077E-3,60.000002384E-3,,,,,-5.36000077E-3,20.0000014E-3,
,,,-5.28000062E-3,20.0000014E-3,,,,,-5.28000062E-3,20.0000014E-3,
,,,-5.20000095E-3,60.000002384E-3,,,,,-5.20000095E-3,20.0000014E-3,
,,,-5.12000080E-3,60.000002384E-3,,,,,-5.12000080E-3,-20.0000014E-3,
,,,-5.04000066E-3,60.000002384E-3,,,,,-5.04000066E-3,20.0000014E-3,
,,,-4.96000098E-3,20.0000014E-3,,,,,-4.96000098E-3,20.0000014E-3,
,,,-4.88000084E-3,60.000002384E-3,,,,,-4.88000084E-3,20.0000014E-3,
,,,-4.80000069E-3,20.0000014E-3,,,,,-4.80000069E-3,-20.0000014E-3,
,,,-4.72000102E-3,60.000002384E-3,,,,,-4.72000102E-3,20.0000014E-3,
,,,-4.64000087E-3,20.0000014E-3,,,,,-4.64000087E-3,-20.0000014E-3,
,,,-4.56000073E-3,60.000002384E-3,,,,,-4.56000073E-3,20.0000014E-3,
,,,-4.48000105E-3,60.000002384E-3,,,,,-4.48000105E-3,-20.0000014E-3,
,,,-4.40000091E-3,20.0000014E-3,,,,,-4.40000091E-3,20.0000014E-3,
,,,-4.32000076E-3,60.000002384E-3,,,,,-4.32000076E-3,-20.0000014E-3,
,,,-4.24000062E-3,60.000002384E-3,,,,,-4.24000062E-3,20.0000014E-3,
,,,-4.16000094E-3,20.0000014E-3,,,,,-4.16000094E-3,-20.0000014E-3,
,,,-4.08000080E-3,20.0000014E-3,,,,,-4.08000080E-3,-20.0000014E-3,
,,,-4.00000066E-3,60.000002384E-3,,,,,-4.00000066E-3,-20.0000014E-3,
,,,-3.92000098E-3,20.0000014E-3,,,,,-3.92000098E-3,20.0000014E-3,
,,,-3.84000083E-3,60.000002384E-3,,,,,-3.84000083E-3,-20.0000014E-3,
,,,-3.76000092E-3,60.000002384E-3,,,,,-3.76000092E-3,-20.0000014E-3,
,,,-3.68000078E-3,60.000002384E-3,,,,,-3.68000078E-3,-20.0000014E-3,
,,,-3.60000087E-3,60.000002384E-3,,,,,-3.60000087E-3,-20.0000014E-3,
,,,-3.52000096E-3,60.000002384E-3,,,,,-3.52000096E-3,20.0000014E-3,
,,,-3.44000082E-3,60.000002384E-3,,,,,-3.44000082E-3,-20.0000014E-3,
,,,-3.36000090E-3,60.000002384E-3,,,,,-3.36000090E-3,-20.0000014E-3,
,,,-3.28000076E-3,60.000002384E-3,,,,,-3.28000076E-3,20.0000014E-3,
,,,-3.20000085E-3,60.000002384E-3,,,,,-3.20000085E-3,-20.0000014E-3,
,,,-3.12000094E-3,60.000002384E-3,,,,,-3.12000094E-3,-20.0000014E-3,
,,,-3.04000080E-3,60.000002384E-3,,,,,-3.04000080E-3,-20.0000014E-3,
,,,-2.96000089E-3,60.000002384E-3,,,,,-2.96000089E-3,20.0000014E-3,
,,,-2.88000097E-3,20.0000014E-3,,,,,-2.88000097E-3,-20.0000014E-3,
,,,-2.80000083E-3,60.000002384E-3,,,,,-2.80000083E-3,20.0000014E-3,
,,,-2.72000092E-3,60.000002384E-3,,,,,-2.72000092E-3,-20.0000014E-3,
,,,-2.6400010E-3,60.000002384E-3,,,,,-2.6400010E-3,20.0000014E-3,
,,,-2.5600009E-3,20.0000014E-3,,,,,-2.5600009E-3,-20.0000014E-3,
,,,-2.4800010E-3,60.000002384E-3,,,,,-2.4800010E-3,-20.0000014E-3,
,,,-2.4000008E-3,60.000002384E-3,,,,,-2.4000008E-3,-20.0000014E-3,
,,,-2.3200009E-3,60.000002384E-3,,,,,-2.3200009E-3,20.0000014E-3,
,,,-2.2400010E-3,60.000002384E-3,,,,,-2.2400010E-3,-20.0000014E-3,
,,,-2.1600008E-3,60.000002384E-3,,,,,-2.1600008E-3,20.0000014E-3,
,,,-2.0800009E-3,60.000002384E-3,,,,,-2.0800009E-3,-20.0000014E-3,
,,,-2.0000008E-3,60.000002384E-3,,,,,-2.0000008E-3,20.0000014E-3,
,,,-1.9200009E-3,20.0000014E-3,,,,,-1.9200009E-3,-20.0000014E-3,
,,,-1.8400010E-3,20.0000014E-3,,,,,-1.8400010E-3,-20.0000014E-3,
,,,-1.7600009E-3,60.000002384E-3,,,,,-1.7600009E-3,-20.0000014E-3,
,,,-1.6800009E-3,20.0000014E-3,,,,,-1.6800009E-3,-20.0000014E-3,
,,,-1.6000009E-3,20.0000014E-3,,,,,-1.6000009E-3,20.0000014E-3,
,,,-1.5200009E-3,60.000002384E-3,,,,,-1.5200009E-3,-20.0000014E-3,
,,,-1.4400010E-3,60.000002384E-3,,,,,-1.4400010E-3,-20.0000014E-3,
,,,-1.3600009E-3,60.000002384E-3,,,,,-1.3600009E-3,20.0000014E-3,
,,,-1.2800009E-3,60.000002384E-3,,,,,-1.2800009E-3,-20.0000014E-3,
,,,-1.2000010E-3,60.000002384E-3,,,,,-1.2000010E-3,20.0000014E-3,
,,,-1.1200010E-3,60.000002384E-3,,,,,-1.1200010E-3,-20.0000014E-3,
,,,-1.0400009E-3,60.000002384E-3,,,,,-1.0400009E-3,20.0000014E-3,
,,,-960.000907071E-6,20.0000014E-3,,,,,-960.000907071E-6,-20.0000014E-3,
,,,-880.000938196E-6,60.000002384E-3,,,,,-880.000938196E-6,-20.0000014E-3,
,,,-800.000969321E-6,20.0000014E-3,,,,,-800.000969321E-6,20.0000014E-3,
,,,-720.000942238E-6,60.000002384E-3,,,,,-720.000942238E-6,20.0000014E-3,
,,,-640.000915155E-6,20.0000014E-3,,,,,-640.000915155E-6,20.0000014E-3,
,,,-560.000946280E-6,60.000002384E-3,,,,,-560.000946280E-6,20.0000014E-3,
,,,-480.000948301E-6,60.000002384E-3,,,,,-480.000948301E-6,-20.0000014E-3,
,,,-400.00095032E-6,4.90000057,,,,,-400.00095032E-6,-20.0000014E-3,
,,,-320.00095234E-6,4.90000057,,,,,-320.00095234E-6,20.0000014E-3,
,,,-240.00095436E-6,4.94000053,,,,,-240.00095436E-6,-20.0000014E-3,
,,,-160.00095638E-6,4.90000057,,,,,-160.00095638E-6,-20.0000014E-3,
,,,-80.000958405E-6,4.94000053,,,,,-80.000958405E-6,20.0000014E-3,
,,,-960.426401138E-12,4.94000053,,,,,-960.426401138E-12,20.0000014E-3,
,,,79.999037553E-6,4.90000057,,,,,79.999037553E-6,20.0000014E-3,
,,,159.99903553E-6,4.90000057,,,,,159.99903553E-6,20.0000014E-3,
,,,239.99903351E-6,4.90000057,,,,,239.99903351E-6,20.0000014E-3,
,,,319.99903149E-6,4.90000057,,,,,319.99903149E-6,20.0000014E-3,
,,,399.99902947E-6,4.90000057,,,,,399.99902947E-6,60.000002384E-3,
,,,479.999027448E-6,4.90000057,,,,,479.999027448E-6,60.000002384E-3,
,,,559.999025427E-6,4.94000053,,,,,559.999025427E-6,60.000002384E-3,
,,,639.999052510E-6,4.90000057,,,,,639.999052510E-6,100.0000089E-3,
,,,719.999021385E-6,4.90000057,,,,,719.999021385E-6,100.0000089E-3,
,,,799.998990260E-6,4.90000057,,,,,799.998990260E-6,100.0000089E-3,
,,,879.999017343E-6,4.90000057,,,,,879.999017343E-6,100.0000089E-3,
,,,959.999044426E-6,4.90000057,,,,,959.999044426E-6,140.0000155E-3,
,,,1.0399991E-3,4.90000057,,,,,1.0399991E-3,140.0000155E-3,
,,,1.1199990E-3,4.90000057,,,,,1.1199990E-3,140.0000155E-3,
,,,1.1999990E-3,4.90000057,,,,,1.1999990E-3,140.0000155E-3,
,,,1.2799990E-3,4.94000053,,,,,1.2799990E-3,140.0000155E-3,
,,,1.3599989E-3,4.90000057,,,,,1.3599989E-3,180.00000715E-3,
,,,1.4399990E-3,4.94000053,,,,,1.4399990E-3,220.00001371E-3,
,,,1.5199990E-3,4.90000057,,,,,1.5199990E-3,220.00001371E-3,
,,,1.5999990E-3,4.90000057,,,,,1.5999990E-3,260.00002027E-3,
,,,1.6799991E-3,4.90000057,,,,,1.6799991E-3,260.00002027E-3,
,,,1.7599990E-3,4.94000053,,,,,1.7599990E-3,260.00002027E-3,
,,,1.8399990E-3,4.90000057,,,,,1.8399990E-3,260.00002027E-3,
,,,1.9199990E-3,4.90000057,,,,,1.9199990E-3,300.00001192E-3,
,,,1.9999989E-3,4.94000053,,,,,1.9999989E-3,300.00001192E-3,
,,,2.0799991E-3,4.94000053,,,,,2.0799991E-3,340.00003338E-3,
,,,2.1599990E-3,4.94000053,,,,,2.1599990E-3,380.00002503E-3,
,,,2.2399989E-3,4.90000057,,,,,2.2399989E-3,380.00002503E-3,
,,,2.3199990E-3,4.94000053,,,,,2.3199990E-3,420.000016689E-3,
,,,2.3999989E-3,4.90000057,,,,,2.3999989E-3,420.000016689E-3,
,,,2.4799989E-3,4.94000053,,,,,2.4799989E-3,460.000038147E-3,
,,,2.5599990E-3,4.90000057,,,,,2.5599990E-3,460.000038147E-3,
,,,2.6399989E-3,4.94000053,,,,,2.6399989E-3,500.000059605E-3,
,,,2.71999906E-3,4.90000057,,,,,2.71999906E-3,540.000021458E-3,
,,,2.79999897E-3,4.94000053,,,,,2.79999897E-3,540.000021458E-3,
,,,2.87999888E-3,4.98000050,,,,,2.87999888E-3,580.000042915E-3,
,,,2.95999902E-3,4.94000053,,,,,2.95999902E-3,580.000042915E-3,
,,,3.03999893E-3,4.90000057,,,,,3.03999893E-3,620.000064373E-3,
,,,3.11999908E-3,4.94000053,,,,,3.11999908E-3,620.000064373E-3,
,,,3.19999899E-3,4.94000053,,,,,3.19999899E-3,660.000026226E-3,
,,,3.27999890E-3,4.90000057,,,,,3.27999890E-3,660.000026226E-3,
,,,3.35999904E-3,4.94000053,,,,,3.35999904E-3,740.000069141E-3,
,,,3.43999895E-3,4.94000053,,,,,3.43999895E-3,780.000030994E-3,
,,,3.51999886E-3,4.94000053,,,,,3.51999886E-3,780.000030994E-3,
,,,3.59999901E-3,4.98000050,,,,,3.59999901E-3,820.000052452E-3,
,,,3.67999892E-3,4.90000057,,,,,3.67999892E-3,860.000073910E-3,
,,,3.75999883E-3,4.94000053,,,,,3.75999883E-3,860.000073910E-3,
,,,3.83999897E-3,4.94000053,,,,,3.83999897E-3,860.000073910E-3,
,,,3.91999912E-3,4.94000053,,,,,3.91999912E-3,940.000057220E-3,
,,,3.99999879E-3,4.94000053,,,,,3.99999879E-3,940.000057220E-3,
,,,4.07999894E-3,4.98000050,,,,,4.07999894E-3,980.000078678E-3,
,,,4.15999908E-3,4.94000053,,,,,4.15999908E-3,1.0200001,
,,,4.23999876E-3,4.94000053,,,,,4.23999876E-3,1.0600001,
,,,4.31999890E-3,4.94000053,,,,,4.31999890E-3,1.1000000,
,,,4.39999904E-3,4.94000053,,,,,4.39999904E-3,1.1000000,
,,,4.47999872E-3,4.94000053,,,,,4.47999872E-3,1.1400001,
,,,4.55999887E-3,4.98000050,,,,,4.55999887E-3,1.1800001,
,,,4.63999901E-3,4.94000053,,,,,4.63999901E-3,1.2200000,
,,,4.71999869E-3,4.94000053,,,,,4.71999869E-3,1.2200000,
,,,4.79999883E-3,4.98000050,,,,,4.79999883E-3,1.2600001,
,,,4.87999897E-3,4.94000053,,,,,4.87999897E-3,1.3000001,
,,,4.95999912E-3,4.94000053,,,,,4.95999912E-3,1.3400002,
,,,5.03999880E-3,4.94000053,,,,,5.03999880E-3,1.3800001,
,,,5.11999894E-3,4.98000050,,,,,5.11999894E-3,1.4200001,
,,,5.19999908E-3,4.98000050,,,,,5.19999908E-3,1.4600002,
,,,5.27999876E-3,4.98000050,,,,,5.27999876E-3,1.4600002,
,,,5.35999890E-3,4.94000053,,,,,5.35999890E-3,1.5000001,
,,,5.43999905E-3,4.94000053,,,,,5.43999905E-3,1.5800002,
,,,5.51999873E-3,4.98000050,,,,,5.51999873E-3,1.5800002,
,,,5.59999887E-3,4.98000050,,,,,5.59999887E-3,1.6200001,
,,,5.67999901E-3,4.98000050,,,,,5.67999901E-3,1.6600001,
,,,5.75999869E-3,4.98000050,,,,,5.75999869E-3,1.7000002,
,,,5.83999883E-3,4.98000050,,,,,5.83999883E-3,1.7000002,
,,,5.91999898E-3,4.94000053,,,,,5.91999898E-3,1.7800001,
,,,5.99999912E-3,4.94000053,,,,,5.99999912E-3,1.8200002,
,,,6.07999880E-3,4.98000050,,,,,6.07999880E-3,1.8600001,
,,,6.15999894E-3,4.98000050,,,,,6.15999894E-3,1.8600001,
,,,6.23999909E-3,4.98000050,,,,,6.23999909E-3,1.9000001,
,,,6.31999876E-3,4.98000050,,,,,6.31999876E-3,1.9000001,
,,,6.39999891E-3,4.98000050,,,,,6.39999891E-3,1.9800001,
,,,6.47999905E-3,4.98000050,,,,,6.47999905E-3,2.0200002,
,,,6.55999873E-3,5.02000046,,,,,6.55999873E-3,2.0600002,
,,,6.63999887E-3,4.98000050,,,,,6.63999887E-3,2.1000001,
,,,6.71999902E-3,4.98000050,,,,,6.71999902E-3,2.1000001,
,,,6.79999869E-3,4.98000050,,,,,6.79999869E-3,2.1800001,
,,,6.87999884E-3,4.98000050,,,,,6.87999884E-3,2.2200003,
,,,6.95999898E-3,4.98000050,,,,,6.95999898E-3,2.2600002,
,,,7.03999866E-3,4.98000050,,,,,7.03999866E-3,2.3000002,
,,,7.11999880E-3,4.98000050,,,,,7.11999880E-3,2.3400002,
,,,7.19999894E-3,4.98000050,,,,,7.19999894E-3,2.3800001,
,,,7.27999862E-3,4.98000050,,,,,7.27999862E-3,2.3800001,
,,,7.35999877E-3,4.98000050,,,,,7.35999877E-3,2.4200001,
,,,7.439998910E-3,4.98000050,,,,,7.439998910E-3,2.5000002,
,,,7.519999053E-3,4.98000050,,,,,7.519999053E-3,2.5000002,
,,,7.599998731E-3,4.98000050,,,,,7.599998731E-3,2.5400002,
,,,7.679998875E-3,5.02000046,,,,,7.679998875E-3,2.5800002,
,,,7.759999018E-3,4.98000050,,,,,7.759999018E-3,2.6200001,
,,,7.839999162E-3,4.98000050,,,,,7.839999162E-3,2.7000003,
,,,7.919998839E-3,5.02000046,,,,,7.919998839E-3,2.7000003,
,,,7.999998517E-3,5.02000046,,,,,7.999998517E-3,2.78000021,
,,,8.079999126E-3,4.98000050,,,,,8.079999126E-3,2.78000021,
,,,8.159998804E-3,4.98000050,,,,,8.159998804E-3,2.82000017,
,,,8.239998482E-3,4.98000050,,,,,8.239998482E-3,2.86000013,
,,,8.319999091E-3,4.98000050,,,,,8.319999091E-3,2.90000010,
,,,8.399998769E-3,4.98000050,,,,,8.399998769E-3,2.94000030,
,,,8.479998447E-3,4.98000050,,,,,8.479998447E-3,2.98000026,
,,,8.559999056E-3,5.02000046,,,,,8.559999056E-3,2.98000026,
,,,8.639998734E-3,5.02000046,,,,,8.639998734E-3,3.02000022,
,,,8.719998412E-3,5.02000046,,,,,8.719998412E-3,3.10000014,
,,,8.799999021E-3,4.98000050,,,,,8.799999021E-3,3.10000014,
,,,8.879998699E-3,4.98000050,,,,,8.879998699E-3,3.18000031,
,,,8.959998377E-3,5.02000046,,,,,8.959998377E-3,3.18000031,
,,,9.039998986E-3,5.02000046,,,,,9.039998986E-3,3.26000023,
,,,9.119998664E-3,5.02000046,,,,,9.119998664E-3,3.26000023,
,,,9.199999273E-3,5.02000046,,,,,9.199999273E-3,3.34000015,
,,,9.279998951E-3,5.02000046,,,,,9.279998951E-3,3.34000015,
,,,9.359998628E-3,5.02000046,,,,,9.359998628E-3,3.38000035,
,,,9.439999238E-3,5.02000046,,,,,9.439999238E-3,3.42000031,
,,,9.519998915E-3,5.06000042,,,,,9.519998915E-3,3.46000028,
,,,9.599998593E-3,4.98000050,,,,,9.599998593E-3,3.50000024,
,,,9.679999202E-3,5.02000046,,,,,9.679999202E-3,3.54000020,
,,,9.759998880E-3,5.02000046,,,,,9.759998880E-3,3.58000016,
,,,9.839998558E-3,5.02000046,,,,,9.839998558E-3,3.62000036,
,,,9.919999167E-3,5.02000046,,,,,9.919999167E-3,3.66000032,
,,,9.999998845E-3,5.02000046,,,,,9.999998845E-3,3.70000029,
,,,10.0799985E-3,4.98000050,,,,,10.0799985E-3,3.70000029,
,,,10.1599991E-3,5.06000042,,,,,10.1599991E-3,3.78000021,
,,,10.2399988E-3,5.02000046,,,,,10.2399988E-3,3.78000021,
,,,10.3199985E-3,5.02000046,,,,,10.3199985E-3,3.82000017,
,,,10.3999991E-3,5.06000042,,,,,10.3999991E-3,3.86000037,
,,,10.4799988E-3,5.06000042,,,,,10.4799988E-3,3.90000033,
,,,10.5599985E-3,5.02000046,,,,,10.5599985E-3,3.94000030,
,,,10.6399991E-3,5.02000046,,,,,10.6399991E-3,3.98000026,
,,,10.7199987E-3,5.02000046,,,,,10.7199987E-3,4.02000046,
,,,10.7999984E-3,5.02000046,,,,,10.7999984E-3,4.06000042,
,,,10.8799990E-3,5.02000046,,,,,10.8799990E-3,4.06000042,
,,,10.9599987E-3,5.06000042,,,,,10.9599987E-3,4.10000038,
,,,11.0399984E-3,5.06000042,,,,,11.0399984E-3,4.14000034,
,,,11.1199990E-3,5.02000046,,,,,11.1199990E-3,4.18000031,
,,,11.1999987E-3,5.02000046,,,,,11.1999987E-3,4.22000027,
,,,11.2799983E-3,5.02000046,,,,,11.2799983E-3,4.26000023,
,,,11.3599990E-3,5.02000046,,,,,11.3599990E-3,4.30000019,
,,,11.4399986E-3,5.02000046,,,,,11.4399986E-3,4.34000015,
,,,11.5199983E-3,5.02000046,,,,,11.5199983E-3,4.38000011,
,,,11.5999989E-3,5.02000046,,,,,11.5999989E-3,4.38000011,
,,,11.6799986E-3,5.02000046,,,,,11.6799986E-3,4.42000008,
,,,11.7599983E-3,5.02000046,,,,,11.7599983E-3,4.46000051,
,,,11.8399989E-3,5.06000042,,,,,11.8399989E-3,4.50000048,
,,,11.9199986E-3,5.02000046,,,,,11.9199986E-3,4.54000044,
,,,11.9999992E-3,5.02000046,,,,,11.9999992E-3,4.58000040,
,,,12.0799989E-3,5.02000046,,,,,12.0799989E-3,4.58000040,
,,,12.1599985E-3,5.02000046,,,,,12.1599985E-3,4.62000036,
,,,12.2399991E-3,5.02000046,,,,,12.2399991E-3,4.66000032,
,,,12.3199988E-3,5.02000046,,,,,12.3199988E-3,4.70000029,
,,,12.3999985E-3,5.02000046,,,,,12.3999985E-3,4.74000025,
,,,12.4799991E-3,5.02000046,,,,,12.4799991E-3,4.78000021,
,,,12.5599988E-3,5.06000042,,,,,12.5599988E-3,4.78000021,
,,,12.6399985E-3,5.02000046,,,,,12.6399985E-3,4.86000013,
,,,12.7199991E-3,5.06000042,,,,,12.7199991E-3,4.86000013,
,,,12.7999987E-3,5.06000042,,,,,12.7999987E-3,4.90000057,
,,,12.8799984E-3,5.02000046,,,,,12.8799984E-3,4.94000053,
,,,12.9599990E-3,5.02000046,,,,,12.9599990E-3,4.94000053,
,,,13.0399987E-3,5.06000042,,,,,13.0399987E-3,4.98000050,
,,,13.1199984E-3,5.02000046,,,,,13.1199984E-3,5.02000046,
,,,13.1999990E-3,5.06000042,,,,,13.1999990E-3,5.06000042,
,,,13.2799987E-3,5.06000042,,,,,13.2799987E-3,5.06000042,
,,,13.3599984E-3,5.06000042,,,,,13.3599984E-3,5.10000038,
,,,13.4399990E-3,5.02000046,,,,,13.4399990E-3,5.14000034,
,,,13.5199986E-3,5.06000042,,,,,13.5199986E-3,5.18000031,
,,,13.5999983E-3,5.06000042,,,,,13.5999983E-3,5.18000031,
,,,13.6799989E-3,5.06000042,,,,,13.6799989E-3,5.26000023,
,,,13.7599986E-3,5.02000046,,,,,13.7599986E-3,5.26000023,
,,,13.8399983E-3,5.02000046,,,,,13.8399983E-3,5.26000023,
,,,13.9199989E-3,5.06000042,,,,,13.9199989E-3,5.30000019,
,,,13.9999986E-3,5.02000046,,,,,13.9999986E-3,5.34000015,
,,,14.0799982E-3,5.06000042,,,,,14.0799982E-3,5.34000015,
,,,14.1599989E-3,5.06000042,,,,,14.1599989E-3,5.42000055,
,,,14.2399985E-3,5.06000042,,,,,14.2399985E-3,5.42000055,
,,,14.3199991E-3,5.06000042,,,,,14.3199991E-3,5.42000055,
,,,14.3999988E-3,5.10000038,,,,,14.3999988E-3,5.50000048,
,,,14.4799985E-3,5.06000042,,,,,14.4799985E-3,5.50000048,
,,,14.5599991E-3,5.06000042,,,,,14.5599991E-3,5.54000044,
